\relax 
\providecommand\hyper@newdestlabel[2]{}
\providecommand*\new@tpo@label[2]{}
\providecommand\HyperFirstAtBeginDocument{\AtBeginDocument}
\HyperFirstAtBeginDocument{\ifx\hyper@anchor\@undefined
\global\let\oldcontentsline\contentsline
\gdef\contentsline#1#2#3#4{\oldcontentsline{#1}{#2}{#3}}
\global\let\oldnewlabel\newlabel
\gdef\newlabel#1#2{\newlabelxx{#1}#2}
\gdef\newlabelxx#1#2#3#4#5#6{\oldnewlabel{#1}{{#2}{#3}}}
\AtEndDocument{\ifx\hyper@anchor\@undefined
\let\contentsline\oldcontentsline
\let\newlabel\oldnewlabel
\fi}
\fi}
\global\let\hyper@last\relax 
\gdef\HyperFirstAtBeginDocument#1{#1}
\providecommand\HyField@AuxAddToFields[1]{}
\providecommand\HyField@AuxAddToCoFields[2]{}
\@writefile{lof}{\deactivateaddvspace  }
\@writefile{lot}{\deactivateaddvspace  }
\@writefile{toc}{\contentsline {section}{\numberline {1}{Wykonanie programu}}{1}{section.1}}
\newlabel{1@xvr}{{}{1}{Wykonanie programu}{section.1}{}}
\newlabel{1@vr}{{}{1}{Wykonanie programu}{section.1}{}}
\newlabel{2@xvr}{{}{1}{Wykonanie programu}{section.1}{}}
\newlabel{2@vr}{{}{1}{Wykonanie programu}{section.1}{}}
\newlabel{3@xvr}{{}{1}{Wykonanie programu}{section.1}{}}
\newlabel{3@vr}{{}{1}{Wykonanie programu}{section.1}{}}
\newlabel{4@xvr}{{}{1}{Wykonanie programu}{section.1}{}}
\newlabel{4@vr}{{}{1}{Wykonanie programu}{section.1}{}}
\@writefile{lol}{\contentsline {lstlisting}{[}{1}{lstlisting.-1}}
\@writefile{lof}{\contentsline {figure}{\numberline {1}{\ignorespaces An example of a floating figure}}{2}{figure.caption.1}}
\providecommand*\caption@xref[2]{\@setref\relax\@undefined{#1}}
\newlabel{figre1}{{1}{2}{An example of a floating figure}{figure.caption.1}{}}
\@writefile{lof}{\contentsline {figure}{\numberline {2}{\ignorespaces An example of a floating figure}}{3}{figure.caption.2}}
\newlabel{figre2}{{2}{3}{An example of a floating figure}{figure.caption.2}{}}
\@writefile{lof}{\contentsline {figure}{\numberline {3}{\ignorespaces An example of a floating figure}}{3}{figure.caption.3}}
\newlabel{figre3}{{3}{3}{An example of a floating figure}{figure.caption.3}{}}
\@writefile{lof}{\contentsline {figure}{\numberline {4}{\ignorespaces An example of a floating figure}}{4}{figure.caption.4}}
\newlabel{figre4}{{4}{4}{An example of a floating figure}{figure.caption.4}{}}
\@writefile{toc}{\contentsline {section}{\numberline {2}{Wnioski}}{4}{section.2}}
\newlabel{5@xvr}{{}{4}{Wnioski}{section.2}{}}
\newlabel{5@vr}{{}{4}{Wnioski}{section.2}{}}
\newlabel{6@xvr}{{}{4}{Wnioski}{section.2}{}}
\newlabel{6@vr}{{}{4}{Wnioski}{section.2}{}}
\newlabel{7@xvr}{{}{4}{Wnioski}{section.2}{}}
\newlabel{7@vr}{{}{4}{Wnioski}{section.2}{}}
\newlabel{8@xvr}{{}{4}{Wnioski}{section.2}{}}
\newlabel{8@vr}{{}{4}{Wnioski}{section.2}{}}
